[gd_scene load_steps=2 format=2]

[sub_resource type="GDScript" id=1]

script/source = "extends Node

export(String, MULTILINE) var serial = \"B0P11-C56\"

func show_bytes():
	for node in $Card/Grid.get_children():
		node.queue_free()
	var bytes = var2bytes( serial.replace(\"-\",\"\") )
	for b in range(bytes.size()/2,bytes.size()):
		for s in range(1,16):
			var sq = ColorRect.new()
			sq.rect_min_size = Vector2(4,4)
			var n = int(  bytes[b] & s == s )
			sq.color = [ Color(0.8,0.8,0.8), Color(0.2,0.2,0.2) ][n]
			$Card/Grid.add_child(sq)

func _ready():
	$In.text = serial
	show_bytes()

func _on_In_text_entered(new_text):
	self.serial = new_text
	show_bytes()
"

[node name="Node" type="Node" index="0"]

script = SubResource( 1 )
serial = "B0P11-C56"

[node name="In" type="LineEdit" parent="." index="0"]

anchor_left = 0.0
anchor_top = 0.0
anchor_right = 0.0
anchor_bottom = 0.0
margin_left = 523.0
margin_top = 102.0
margin_right = 902.0
margin_bottom = 134.0
rect_pivot_offset = Vector2( 0, 0 )
rect_clip_content = false
focus_mode = 2
mouse_filter = 0
mouse_default_cursor_shape = 1
size_flags_horizontal = 1
size_flags_vertical = 1
focus_mode = 2
context_menu_enabled = true
placeholder_alpha = 0.6
caret_blink = false
caret_blink_speed = 0.65
caret_position = 0

[node name="Card" type="ColorRect" parent="." index="1"]

show_behind_parent = true
anchor_left = 0.0
anchor_top = 0.0
anchor_right = 1.0
anchor_bottom = 1.0
margin_left = 41.0
margin_top = 36.0
margin_right = -1387.0
margin_bottom = -781.0
rect_pivot_offset = Vector2( 0, 0 )
rect_clip_content = false
mouse_filter = 0
mouse_default_cursor_shape = 0
size_flags_horizontal = 1
size_flags_vertical = 1
color = Color( 1, 1, 1, 1 )

[node name="Grid" type="GridContainer" parent="Card" index="0"]

anchor_left = 0.0
anchor_top = 0.0
anchor_right = 1.0
anchor_bottom = 1.0
margin_left = 5.0
margin_top = 7.0
margin_right = -7.0
margin_bottom = -6.0
rect_pivot_offset = Vector2( 0, 0 )
rect_clip_content = false
mouse_filter = 1
mouse_default_cursor_shape = 0
size_flags_horizontal = 1
size_flags_vertical = 1
custom_constants/vseparation = 1
custom_constants/hseparation = 1
columns = 15

[connection signal="text_entered" from="In" to="." method="_on_In_text_entered"]


