[gd_scene load_steps=7 format=2]

[ext_resource path="res://assets/fonts/kenyan coffee rg.ttf" type="DynamicFontData" id=1]
[ext_resource path="res://assets/fonts/Folks-Light.ttf" type="DynamicFontData" id=2]
[ext_resource path="res://resources/Glow.tscn" type="PackedScene" id=3]

[sub_resource type="DynamicFont" id=1]

size = 100
use_mipmaps = true
use_filter = true
font_data = ExtResource( 1 )
_sections_unfolded = [ "Font", "Settings" ]

[sub_resource type="DynamicFont" id=2]

size = 20
use_mipmaps = true
use_filter = true
font_data = ExtResource( 2 )
_sections_unfolded = [ "Font", "Settings" ]

[sub_resource type="StyleBoxFlat" id=3]

content_margin_left = -1.0
content_margin_right = -1.0
content_margin_top = -1.0
content_margin_bottom = -1.0
bg_color = Color( 0, 0, 0, 1 )
draw_center = true
border_width_left = 32
border_width_top = 2
border_width_right = 2
border_width_bottom = 2
border_color = Color( 0.90625, 0.792083, 0.343384, 1 )
border_blend = false
corner_radius_top_left = 4
corner_radius_top_right = 0
corner_radius_bottom_right = 0
corner_radius_bottom_left = 4
corner_detail = 4
expand_margin_left = 34.0
expand_margin_right = 2.0
expand_margin_top = 2.0
expand_margin_bottom = 2.0
shadow_color = Color( 0, 0, 0, 0.6 )
shadow_size = 0
anti_aliasing = true
anti_aliasing_size = 1
_sections_unfolded = [ "Border", "Border Width", "Corner Radius", "Expand Margin" ]

[node name="Control" type="Control" index="0"]

anchor_left = 0.0
anchor_top = 0.0
anchor_right = 1.0
anchor_bottom = 1.0
rect_pivot_offset = Vector2( 0, 0 )
rect_clip_content = false
mouse_filter = 0
mouse_default_cursor_shape = 0
size_flags_horizontal = 1
size_flags_vertical = 1

[node name="Label" type="Label" parent="." index="0"]

anchor_left = 0.0
anchor_top = 0.0
anchor_right = 0.0
anchor_bottom = 0.0
margin_right = 564.0
margin_bottom = 140.0
rect_pivot_offset = Vector2( 0, 0 )
rect_clip_content = false
mouse_filter = 2
mouse_default_cursor_shape = 0
size_flags_horizontal = 1
size_flags_vertical = 4
custom_fonts/font = SubResource( 1 )
custom_colors/font_color = Color( 1, 1, 1, 1 )
text = "Seidliner XL"
align = 1
valign = 1
percent_visible = 1.0
lines_skipped = 0
max_lines_visible = -1
_sections_unfolded = [ "custom_colors" ]

[node name="Label2" type="Label" parent="." index="1"]

anchor_left = 0.0
anchor_top = 0.0
anchor_right = 0.0
anchor_bottom = 0.0
margin_top = 115.0
margin_right = 564.0
margin_bottom = 193.0
rect_pivot_offset = Vector2( 0, 0 )
rect_clip_content = false
mouse_filter = 2
mouse_default_cursor_shape = 0
size_flags_horizontal = 1
size_flags_vertical = 4
custom_fonts/font = SubResource( 2 )
custom_colors/font_color = Color( 1, 1, 1, 1 )
text = "Ultralight Courior"
align = 2
percent_visible = 1.0
lines_skipped = 0
max_lines_visible = -1
_sections_unfolded = [ "custom_fonts" ]

[node name="PanelContainer" type="PanelContainer" parent="." index="2"]

anchor_left = 0.0
anchor_top = 0.0
anchor_right = 0.0
anchor_bottom = 0.0
margin_left = 43.0
margin_top = 194.0
margin_right = 563.0
margin_bottom = 878.0
rect_pivot_offset = Vector2( 0, 0 )
rect_clip_content = false
mouse_filter = 0
mouse_default_cursor_shape = 0
size_flags_horizontal = 1
size_flags_vertical = 1
custom_styles/panel = SubResource( 3 )
_sections_unfolded = [ "custom_styles" ]

[node name="Glow" parent="." index="3" instance=ExtResource( 3 )]


